titolo,pubblicato
80 Finestra con vista (su iPhoto),"Marzo 19, 2004| In Non categorizzato| No Comments"
79 Un dialer per invidiosi,"Marzo 18, 2004| In Non categorizzato| No Comments"
78 La prossima killer app,"Marzo 17, 2004| In Non categorizzato| No Comments"
77 Altre armi di distruzione di spam,"Marzo 16, 2004| In Non categorizzato| No Comments"
76 Ping! - Spazio zero,"Marzo 12, 2004| In Non categorizzato| No Comments"
