titolo,pubblicato
940 Come nelle migliori pubblicazioni,"Luglio 31, 2006| In Soft, Nomi| 1 Comment"
"920 Grande, grande, grande","Luglio 31, 2006| In Soft| 2 Comments"
919 Se fare un sito diventa naturale,"Luglio 30, 2006| In Soft, Life| 10 Comments"
936 Riscaldamento globale,"Luglio 29, 2006| In Hard, Life| 3 Comments"
935 Saluto… militare,"Luglio 29, 2006| In Hard, Life| 6 Comments"
917 Compìti per le vacanze,"Luglio 29, 2006| In Soft, Life| 3 Comments"
913 Il gusto del pacco,"Luglio 28, 2006| In Hard, Life| 3 Comments"
934 (Star-spangled) banners,"Luglio 27, 2006| In Blob, Nomi| 6 Comments"
933 Disinformazione sempre aperta,"Luglio 27, 2006| In Soft, Unix, Blob| 3 Comments"
912 Mentre non guardi Adium pensa a te,"Luglio 27, 2006| In Soft| 1 Comment"
931 Psicanalisti Express,"Luglio 26, 2006| In Hard, Blob| 12 Comments"
930 Un blog da tenere d’occhio,"Luglio 26, 2006| In Nomi| 2 Comments"
910 D’istruzione creativa,"Luglio 26, 2006| In Nomi, Life, Work| No Comments"
909 Update vuole dire speranza,"Luglio 25, 2006| In Soft| No Comments"
926 Grazie dei fior… di zucca,"Luglio 24, 2006| In Nomi, Life| 2 Comments"
908 Due occhi vedono meglio di uno,"Luglio 24, 2006| In Hard, Nomi| 3 Comments"
907 Pausa ristoratrice,"Luglio 23, 2006| In Nomi, Life| 1 Comment"
"905 Un browser per crearli, un browser per gestirli, un browser per domarli…","Luglio 22, 2006| In Soft| 16 Comments"
923 La cenere sotto il tappeto,"Luglio 21, 2006| In Hard, Blob| 7 Comments"
904 Olio di serpente,"Luglio 21, 2006| In Life| 15 Comments"
903 Leggere fa sempre bene,"Luglio 20, 2006| In Soft| No Comments"
921 Minuto per minuto,"Luglio 20, 2006| In Blob, Work| 3 Comments"
901 A grandi linee,"Luglio 19, 2006| In Soft| 1 Comment"
900 Giorni di Java,"Luglio 18, 2006| In Work| 1 Comment"
918 La rivincita della fotografia,"Luglio 17, 2006| In Life| 3 Comments"
899 Scienza in casa,"Luglio 17, 2006| In Hard, Nomi, Life| 49 Comments"
916 Per rispondere ad Alex,"Luglio 16, 2006| In Life| 1 Comment"
915 Turni di riposo,"Luglio 16, 2006| In Life| 2 Comments"
914 Plus di un vecchio Mac,"Luglio 16, 2006| In Hard, Life| No Comments"
898 Era personale,"Luglio 16, 2006| In Life| 15 Comments"
