titolo,pubblicato
Niente di nuovo sul fronte dell’update,"Maggio 31, 2007| In Soft| 3 Commenti"
Il Prozac non è nessuno,"Maggio 30, 2007| In Soft| 8 Commenti"
Poi dicono che sono equivalenti,"Maggio 29, 2007| In Soft, Blob| 2 Commenti"
Esperienze mistiche,"Maggio 28, 2007| In Hard| 6 Commenti"
"Thank God It’ll Be Friday, Again","Maggio 28, 2007| In Soft| Nessun Commento"
Per motivi indipendenti dalla nostra volontà,"Maggio 28, 2007| In Soft| Nessun Commento"
Times Are A-changin’,"Maggio 27, 2007| In Life| 13 Commenti"
Un tasto non dolente,"Maggio 26, 2007| In Hard, Life| Nessun Commento"
È sempre in agguato,"Maggio 25, 2007| In Life| Nessun Commento"
Lezione di creatività,"Maggio 25, 2007| In Soft| 16 Commenti"
Dio e il bigottismo razionale,"Maggio 24, 2007| In Nomi, Life| 3 Commenti"
Un pianeta giovane (e largamente inesplorato),"Maggio 23, 2007| In Soft| 4 Commenti"
Pensieri rimescolati,"Maggio 22, 2007| In Hard| 4 Commenti"
Accetti il Risk?,"Maggio 21, 2007| In Soft, Life| 4 Commenti"
Famolo ibrido,"Maggio 21, 2007| In Soft| Nessun Commento"
Parlo di Carlo,"Maggio 20, 2007| In Nomi| 1 Commento"
MoM non è WoW,"Maggio 20, 2007| In Soft, Life| 3 Commenti"
Se facesse anche il caffè,"Maggio 19, 2007| In Soft| Nessun Commento"
Recensioni estemporanee,"Maggio 18, 2007| In Soft| 5 Commenti"
Controllo cellulare,"Maggio 17, 2007| In Soft| 1 Commento"
Quasi più bello il clone,"Maggio 16, 2007| In Hard, Soft, Nomi, Life| 4 Commenti"
Chat a comando,"Maggio 15, 2007| In Soft| Nessun Commento"
Battle for Fun,"Maggio 14, 2007| In Soft, Life| 1 Commento"
Historia antica,"Maggio 13, 2007| In Unix, Life| 1 Commento"
Senza una tessera non sei nessuno,"Maggio 12, 2007| In Nomi, Life| 5 Commenti"
Cinque per mille,"Maggio 12, 2007| In Nomi, Life| 2 Commenti"
In fila per X(phile),"Maggio 12, 2007| In Soft| 1 Commento"
C’è sempre una prima volta,"Maggio 11, 2007| In Soft| 3 Commenti"
Qed,"Maggio 10, 2007| In Soft| 3 Commenti"
Un appuntamento che dà lustro,"Maggio 9, 2007| In Nomi, Life| 2 Commenti"
