titolo,pubblicato
1224 Averne,"Marzo 31, 2007| In Hard| 2 Comments"
1223 Navigando si impara,"Marzo 30, 2007| In Nomi| 2 Comments"
1222 Animazione in comunità,"Marzo 29, 2007| In Soft| 3 Comments"
"1220 Nuova chat, nuova vita","Marzo 28, 2007| In Soft| 4 Comments"
1219 Uno su mille non ce la fa,"Marzo 27, 2007| In Nomi, Life| 12 Comments"
1221 Occasioni imperdibili,"Marzo 26, 2007| In Life| 2 Comments"
1218 La ciambella col buco,"Marzo 26, 2007| In Unix, Life| 5 Comments"
1217 Bastava un po’ di carica,"Marzo 25, 2007| In Soft| 5 Comments"
1216 Paura double-face,"Marzo 24, 2007| In Soft| 1 Comment"
1215 Uno via l’altro,"Marzo 23, 2007| In Life| 9 Comments"
1214 Chi si contenta di Vista non gode,"Marzo 22, 2007| In Life| 14 Comments"
1213 Alan For d(ownload),"Marzo 21, 2007| In Soft| 1 Comment"
1212 O ci fa Ocr,"Marzo 20, 2007| In Soft, Unix| 3 Comments"
1211 I programmi dell’Access,"Marzo 19, 2007| In Soft| 6 Comments"
1210 All add-in Sane,"Marzo 18, 2007| In Soft, Life| 6 Comments"
1209 Sempre a una cifra,"Marzo 17, 2007| In Soft| 10 Comments"
1208 Sproniamo gli stalloni,"Marzo 16, 2007| In Nomi, Life| 2 Comments"
1207 Quiz est Veritas,"Marzo 15, 2007| In Soft, Blob, Life| 20 Comments"
1206 Complimenti a Welch,"Marzo 14, 2007| In Soft| 3 Comments"
1205 Rimessa all’indice,"Marzo 13, 2007| In Life| 4 Comments"
1204 Famolo strano,"Marzo 12, 2007| In Soft, Life| 2 Comments"
1203 Come la vecchia zia ricca,"Marzo 11, 2007| In Life| 6 Comments"
1202 Lettura per un sabato di pioggia,"Marzo 10, 2007| In Soft, Nomi, Life| 6 Comments"
1201 Eccezioni che confermano la regola,"Marzo 9, 2007| In Soft| 12 Comments"
1200 No limits,"Marzo 8, 2007| In Life| 13 Comments"
1199 A che gioco giochiamo,"Marzo 7, 2007| In Nomi| 1 Comment"
1198 A .Net con il nemico,"Marzo 6, 2007| In Soft| 3 Comments"
"1197 Uno, due, Xml","Marzo 5, 2007| In Soft| 3 Comments"
1193 Regali regali,"Marzo 4, 2007| In Soft, Life| No Comments"
1192 Curiosando su SourceForge,"Marzo 3, 2007| In Soft| 4 Comments"
