titolo,pubblicato
Il diavolo a quattro (quarti);2/01/2008
Cosa fatta Capodanno ha;1/01/2008
Un modo si trova sempre;31/12/2007
Il troppo stroppia;30/12/2007
Il sei è sufficiente;30/12/2007
Il gusto perverso dell’arbitro;29/12/2007
L’occasione di una vita;28/12/2007
I fantastici quattro per l’edizione nove;27/12/2007
Sta per arrivare l’anno nuovo;26/12/2007
Natum Est;25/12/2007
Datemi una D;24/12/2007
Per colpa di chi;23/12/2007
Sotto l’albero le mele;22/12/2007
Gli uomini di buona volontà;22/12/2007
Ridere fa bene;21/12/2007
Per pochi, ma non per tutti;20/12/2007
La cena del vicino è sempre più normale;19/12/2007
Specchietti per le allodole;18/12/2007
Natale con le sue;17/12/2007
In coda di stampa;16/12/2007
Effetto alone;15/12/2007
Mac Around the Clock;14/12/2007
Il vecchio e il mare;13/12/2007
Umano e bestiale;12/12/2007
Scegli il passato per il tuo avvenire;11/12/2007
Le cose a meta(Mark);10/12/2007
Lo ha detto la tivvù;9/12/2007
Passare alla cassa;9/12/2007
Neanche me ne sono accorto;9/12/2007
Apple è dieci anni avanti;8/12/2007
