titolo,pubblicato
Stampa che ti aggiorna,"giugno 30, 2009| In Soft| 3 Commenti"
Stavolta non paga Pantalone,"giugno 30, 2009| In Nomi, Soft| 7 Commenti"
"Sveglia, questo è Snow Leopard","giugno 29, 2009| In Soft| 3 Commenti"
Addio senso di colpa,"giugno 29, 2009| In Blob, Nomi, Work| 11 Commenti"
Navigazione à la carte,"giugno 28, 2009| In Soft| 1 Commento"
Tutte insieme appassionatamente,"giugno 28, 2009| In Soft, Work| 6 Commenti"
Mai troppo esposti,"giugno 27, 2009| In Soft| 3 Commenti"
"Un sistema, tre iPhone","giugno 27, 2009| In Hard, Soft| 5 Commenti"
Pile scorrevoli,"giugno 26, 2009| In Soft| 6 Commenti"
In fila per mille,"giugno 26, 2009| In Soft, Work| Nessun Commento"
Adockiare spazi,"giugno 25, 2009| In Soft| 3 Commenti"
A un altro livello,"giugno 25, 2009| In Hard, Work| 1 Commento"
Cartella intestata,"giugno 24, 2009| In Soft| 3 Commenti"
Non si butta via niente,"giugno 24, 2009| In Nomi, Soft| 4 Commenti"
A favore della ricerca,"giugno 23, 2009| In Soft| 2 Commenti"
Più trasparenza per tutti,"giugno 23, 2009| In Life, Nomi, Soft| 7 Commenti"
Mister X ha perso,"giugno 23, 2009| In Hard, Life, Soft| Nessun Commento"
Il faretto è più flessibile,"giugno 22, 2009| In Soft| Nessun Commento"
L’azione politica,"giugno 22, 2009| In Life, Nomi, Soft| 5 Commenti"
Chi cerca si trova,"giugno 21, 2009| In Soft| Nessun Commento"
Il valore del software originale,"giugno 21, 2009| In Life, Nomi, Soft| 7 Commenti"
Espulsione ineccepibile,"giugno 20, 2009| In Soft| 7 Commenti"
Un Safari complicato,"giugno 20, 2009| In Nomi, Soft| 11 Commenti"
"Icone, non ichine","giugno 19, 2009| In Soft| 3 Commenti"
Già mi manca,"giugno 19, 2009| In Life, Soft| 3 Commenti"
Tra l’icona e il file il passo è (più) breve,"giugno 18, 2009| In Soft| Nessun Commento"
Sussurri e grida,"giugno 18, 2009| In Nomi, Soft| 1 Commento"
“Rimetta a posto la cartella”,"giugno 17, 2009| In Soft| 5 Commenti"
Un giorno tutto questo sarà tuo,"giugno 17, 2009| In Life, Nomi, Soft| 3 Commenti"
Sfida al MobileMe Corral,"giugno 16, 2009| In Life, Soft| 11 Commenti"
