titolo,pubblicato
Non si butta via niente,"settembre 30, 2009| In Blob, Nomi, Soft| 2 Commenti"
Il gigante e la bombina,"settembre 29, 2009| In Blob, Nomi, Soft| 8 Commenti"
Giustizia sarà fatta,"settembre 28, 2009| In Life, Nomi| 4 Commenti"
La forza del passapaura,"settembre 28, 2009| In Nomi, Soft, Unix| 2 Commenti"
Kill Bill Switch,"settembre 27, 2009| In Hard, Nomi, Soft| 2 Commenti"
Solo un aneddoto,"settembre 26, 2009| In Blob, Hard, Life| 1 Commento"
Andiamo per il sottile,"settembre 25, 2009| In Nomi, Soft| Nessun Commento"
La pubblicità è l’anima,"settembre 24, 2009| In Life, Nomi| 4 Commenti"
"Un dilemma, due unicorni","settembre 23, 2009| In Blob, Nomi, Soft| 8 Commenti"
Mr. Bean visita il desktop,"settembre 22, 2009| In Life, Soft| 5 Commenti"
Questione di zeri,"settembre 21, 2009| In Blob, Nomi, Soft| 12 Commenti"
Inconfondibile,"settembre 20, 2009| In Blob, Soft| Nessun Commento"
Goffo marketing,"settembre 20, 2009| In Blob, Hard, Nomi, Soft| 8 Commenti"
Una nota veloce,"settembre 19, 2009| In Nomi, Soft| 2 Commenti"
I libri come una volta,"settembre 18, 2009| In Blob, Hard, Life, Soft| 6 Commenti"
Sempre più in alto,"settembre 17, 2009| In Blob, Life, Soft| 9 Commenti"
La curiosità uccise il fatto,"settembre 17, 2009| In Blob, Hard, Nomi| 1 Commento"
Aprire alla Grand,"settembre 16, 2009| In Soft| 3 Commenti"
Vettori di libertà,"settembre 15, 2009| In Life, Nomi, Soft| 3 Commenti"
Prima dell’era moderna,"settembre 14, 2009| In Hard| 3 Commenti"
Un ambiente Sane,"settembre 13, 2009| In Soft, Unix| 2 Commenti"
Servizievole a chiare lettere,"settembre 12, 2009| In Nomi, Soft| Nessun Commento"
Servizievole Automator,"settembre 12, 2009| In Nomi, Soft| 8 Commenti"
Doti nascoste,"settembre 11, 2009| In Hard, Life, Nomi| 3 Commenti"
Un equivoco colossale,"settembre 11, 2009| In Nomi, Soft| 1 Commento"
Quattro amici allo Store,"settembre 10, 2009| In Hard, Life, Nomi| 2 Commenti"
Musica in compagnia,"settembre 10, 2009| In Life, Nomi| Nessun Commento"
Il lamentino del leopardo,"settembre 10, 2009| In Life, Soft| 14 Commenti"
Folla binaria,"settembre 9, 2009| In Life, Nomi| 3 Commenti"
It’s Only Chat & Roll (But I Like It),"settembre 9, 2009| In Hard, Life, Nomi, Soft| 1 Commento"
