titolo;pubblicato
Sulla pelle dell’Africa;2/11/2007
Leoparderie;1/11/2007
Spazio all’organizzazione;1/11/2007
300+ novità: Mail;1/11/2007
i(l)Web deve essere semplice;1/11/2007
300+ novità: iCal;31/10/2007
Causa, effetto;31/10/2007
Leopardiade;30/10/2007
Up and Running;30/10/2007
300+ novità: grafica;30/10/2007
Il sito più facile;30/10/2007
300+ novità: Front Row;29/10/2007
Innovazione e sporcizia;29/10/2007
300+ novità: font;28/10/2007
Traduzione cercasi;28/10/2007
300+ novità: Finder;27/10/2007
Noi galli del Mac abbiamo paura di una cosa sola: che il costo ci ricada sulla testa;27/10/2007
Il multitasking che vorrei;27/10/2007
300+ novità: Dvd Player;26/10/2007
Per farsi licenziare;26/10/2007
300+ novità: Dictionary;25/10/2007
Servire serve;25/10/2007
300+ novità: Desktop;24/10/2007
L’ironia è gratis, la propaganda si svende;24/10/2007
L’ultimo momento, no, quello dopo;23/10/2007
300+ novità: Dashcode;23/10/2007
Foto forti;22/10/2007
300+ novità: Dashboard;22/10/2007
300+ novità: Boot Camp;21/10/2007
Grazie dei fior (di codice);21/10/2007
