library(rvest)
library(openssl)
mesi <- c(
"gen",
"feb",
library(rvest)
library(openssl)
mesi <- c(
"gen",
"feb",
"mar",
"apr",
"mag",
"giu",
"lug",
"ago",
"set",
"ott",
"nov",
"dic"
)
url <- paste0("https://web.archive.org/web/20090601183429/http://www.macworld.it/blogs/ping/?p=1468")
print(url)
s <- read_html(url)
commenti <- s |>
html_elements("ol li")
commenti
commenti
commenti <- sub("<small>.*", "", commenti)
commenti
commenti <- html_text2(commenti)
commenti <- s |>
html_elements("ol li")
commenti
commenti <- sub("(<li id.*<p>)(.*)(<small>.*)", "\\2", commenti)
commenti
commenti <- s |>
html_elements("ol li")
commenti <- gsub("(<li id.*<p>)(.*)(</p>*<small>.*)", "\\2", commenti)
commenti
commenti <- s |>
html_elements("ol li")
commenti <- gsub("(<li id*<p>)(.*)(</p>*<small>.*)", "\\2", commenti)
commenti
commenti <- s |>
html_elements("ol li")
commenti <- gsub("(<li id*>\\n\\t<p>)(.*)(</p>*<small>.*)", "\\2", commenti)
commenti
commenti <- s |>
html_elements("ol li")
commenti <- gsub("(<li id*>\\n\\t<p>)(.*)", "\\2", commenti)
commenti
commenti <- s |>
html_elements("ol li")
commenti <- gsub("(<li*>\\n\\t<p>)(.*)", "\\2", commenti)
commenti
commenti <- s |>
html_elements("ol li")
commenti <- gsub("(<li*>)(.*)", "\\2", commenti)
commenti
commenti <- s |>
html_elements("ol li")
commenti <- s |>
html_elements("ol li") |>
html_text2()
commenti
commenti <- s |>
html_elements("ol li") |>
html_elements("ol li") |>
html_elements("ol li") |>
html_text2()
commenti <- gsub("\n\nCommento*$", "", commenti)
commenti
