titolo,pubblicato
In viaggio per un po’,30/08/2010
Nel regno del fattibile / 14,30/08/2010
Chi lo ama lo segua,29/08/2010
Come si fa il web nel 2010,28/08/2010
Ce n’è sempre uno quando serve,27/08/2010
Ne vorrei anche per il web,27/08/2010
Vecchi fin da giovani,26/08/2010
Intervento a mouse aperto,25/08/2010
Il disegno intelligente,24/08/2010
Aggiungere uno,23/08/2010
Una lotteria che ti cambia la vita,23/08/2010
La finestra che mancava,22/08/2010
Flasha bene chi flasha ultimo,21/08/2010
L’arte e la massa,21/08/2010
La devianza… immagina,20/08/2010
Scoccano le venti,19/08/2010
La banda passante degli onesti,18/08/2010
Le tre strade alla civilizzazione,17/08/2010
Opportunità e Risk,16/08/2010
