titolo,pubblicato
Un sito fuoriserie,5/10/2010
È da vedersi,4/10/2010
Molto peggio del pesce,3/10/2010
Pillola rossa e pillola touch,2/10/2010
(Non) in concerto con gli amici,1/10/2010
Il bingo delle notizie,30/09/2010
Dare lustro a un dipendente,29/09/2010
Un cretino e due creativi,28/09/2010
Pizza e giornalismo,27/09/2010
Dieci anni dopo,27/09/2010
La calma è la virtù dei folti,26/09/2010
Parlare per dire qualcosa,25/09/2010
Giustificazione firmata,24/09/2010
Niente domande,24/09/2010
Nonsenso comune,23/09/2010
Loro lo avevano detto,22/09/2010
Aperto. Alla credulità,21/09/2010
Un’occasione da perdere,20/09/2010
Il secondo venticinquesimo,20/09/2010
