titolo,pubblicato
Sensibilità al tocco,7/02/2010
Una fine superficiale,6/02/2010
È tempo di migrare,6/02/2010
Soddisfazioni superficiali,5/02/2010
Un nuovo vicino,5/02/2010
Superficiale lapidarietà,4/02/2010
Impossibile archiviarla,4/02/2010
La superficialità che spegne gli entusiasmi,3/02/2010
Venire in quel paese,3/02/2010
Il prezzo della superficialità,2/02/2010
La moglie di Pippo,2/02/2010
Mezz’ora di luce,1/02/2010
Esperienze naturali,1/02/2010
Godimento comune,31/01/2010
Peccato di superficialità,31/01/2010
Programmazione grafica,30/01/2010
La grande truffa del tablet,29/01/2010
Il punto,28/01/2010
Finalmente il tablet Apple,27/01/2010
