titolo,pubblicato
L’esercito delle dodicimila scimmie,12/05/2010
Nel regno del fattibile / 2,11/05/2010
Sicurezza è pensarci,11/05/2010
Lettura differita,10/05/2010
Crescita percentuale,9/05/2010
C’era una volta il netbook,8/05/2010
Come piove si ritirano,7/05/2010
Due volte primo,6/05/2010
Fare un libro sulla musica,5/05/2010
Tecnica e paura/1,4/05/2010
L’importante è finire. Oppure no,3/05/2010
Un backup in ogni porto,1/05/2010
Steve Jobs e Flash (in italiano),30/04/2010
Quando conta la mole,29/04/2010
Lampista cercasi,28/04/2010
Morali omnidirezionali,28/04/2010
"Uno era troppo, due sono abbastanza",27/04/2010
In corso di cambiamento,26/04/2010
L’esplosione del video,25/04/2010
